{
  "server": {
    "DEBUG": true,
    "domain": "localhost",
    "port": 5000
  },
  "api": "/api",
  "log": {
    "path": "./",
    "level": "debug"
  },
  "client": {
    "domain": "localhost",
    "port": 8080
  },
  "paths":{
    "pictures": "/srv/www/casper/pictures"
  },
  "database": {
    "host": "localhost",
    "user": "casper",
    "password": "C@5p3R",
    "name": "casper",
    "dumps": "."
  },
  "xmpp": {
    "ejabberdctl": "/opt/ejabberd-19.05/bin/ejabberdctl",
    "server": "xmpp.casper.thehappinessatworkproject.com",
    "admin": {
      "user": "casper",
      "token": "d7TYK2a7j8GaiM4Q",
      "host": "localhost",
      "port": "5280"
    }
  },
  "fcm": {
    "apiKey": "AAAAtHrwGkI:APA91bE68luKKqBmr-trpATTUPnQlhn2QfSLNge8ljZuQWyd6h88M7jMLjp-n7DbmOgvG9JW--6YRJ-Khn22ZXvePFpKlE89haxY6amNTy6aNxwqpkAog4Db2CdjIW80Id3jfenZRhJy"
  },
  "smtp": {
    "host": "mail.thehappinessatworkproject.com",
    "port": 587,
    "user": "casper@thehappinessatworkproject.com",
    "password": "64P42PjWA2BybrCe"
  }
}
